"_inet_ntoa","arpa/inet.h","defined(CONFIG_NET_IPv4) && !defined(CONFIG_CAN_PASS_STRUCTS)","FAR char","in_addr_t"
"abort","stdlib.h","","void"
"abs","stdlib.h","","int","int"
"aio_error","aio.h","defined(CONFIG_FS_AIO)","int","FAR struct aiocb *"
"aio_return","aio.h","defined(CONFIG_FS_AIO)","ssize_t","FAR struct aiocb *"
"aio_suspend","aio.h","defined(CONFIG_FS_AIO)","int","FAR struct aiocb *const []|FAR struct aiocb *const *","int","FAR const struct timespec *"
"asprintf","stdio.h","","int","FAR char **","FAR const char *","..."
"vasprintf","stdio.h","","int","FAR char **","FAR const char *","va_list"
"b16atan2","fixedmath.h","!defined(CONFIG_HAVE_LONG_LONG)","b16_t","b16_t","b16_t"
"b16cos","fixedmath.h","","b16_t","b16_t"
"b16divb16","fixedmath.h","!defined(CONFIG_HAVE_LONG_LONG)","b16_t","b16_t","b16_t"
"b16mulb16","fixedmath.h","!defined(CONFIG_HAVE_LONG_LONG)","b16_t","b16_t","b16_t"
"b16sin","fixedmath.h","","b16_t","b16_t"
"b16sqr","fixedmath.h","!defined(CONFIG_HAVE_LONG_LONG)","b16_t","b16_t"
"basename","libgen.h","","FAR char","FAR char *"
"cfgetspeed","termios.h","defined(CONFIG_SERIAL_TERMIOS)","speed_t","FAR const struct termios *"
"cfsetspeed","termios.h","defined(CONFIG_SERIAL_TERMIOS)","int","FAR struct termios *","speed_t"
"chdir","unistd.h","!defined(CONFIG_DISABLE_ENVIRON)","int","FAR const char *"
"clock","time.h","","clock_t"
"crc32","crc32.h","","uint32_t","FAR const uint8_t *","size_t"
"crc32part","crc32.h","","uint32_t","FAR const uint8_t *","size_t","uint32_t"
"dirname","libgen.h","","FAR char","FAR char *"
"dq_addafter","queue.h","","void","FAR dq_entry_t *","FAR dq_entry_t *","FAR dq_queue_t *"
"dq_addbefore","queue.h","","void","FAR dq_entry_t *","FAR dq_entry_t *","FAR dq_queue_t *"
"dq_addfirst","queue.h","","void","FAR dq_entry_t *","dq_queue_t *"
"dq_addlast","queue.h","","void","FAR dq_entry_t *","dq_queue_t *"
"dq_rem","queue.h","","void","FAR dq_entry_t *","dq_queue_t *"
"dq_remfirst","queue.h","","FAR dq_entry_t","dq_queue_t *"
"dq_remlast","queue.h","","FAR dq_entry_t","dq_queue_t *"
"_err","debug.h","!defined(CONFIG_CPP_HAVE_VARARGS) && defined(CONFIG_DEBUG_ERROR)","int","FAR const char *","..."
"ether_ntoa","netinet/ether.h","","FAR char","FAR const struct ether_addr *"
"fclose","stdio.h","CONFIG_NFILE_STREAMS > 0","int","FAR FILE *"
"fdopen","stdio.h","CONFIG_NFILE_STREAMS > 0","FAR FILE","int","FAR const char *"
"fflush","stdio.h","CONFIG_NFILE_STREAMS > 0","int","FAR FILE *"
"ffs","strings.h","","int","int"
"fgetc","stdio.h","CONFIG_NFILE_STREAMS > 0","int","FAR FILE *"
"fgetpos","stdio.h","CONFIG_NFILE_STREAMS > 0","int","FAR FILE *","FAR fpos_t *"
"fgets","stdio.h","CONFIG_NFILE_STREAMS > 0","FAR char","FAR char *","int","FAR FILE *"
"fileno","stdio.h","","int","FAR FILE *"
"fopen","stdio.h","CONFIG_NFILE_STREAMS > 0","FAR FILE","FAR const char *","FAR const char *"
"fprintf","stdio.h","CONFIG_NFILE_STREAMS > 0","int","FAR FILE *","FAR const char *","..."
"fputc","stdio.h","CONFIG_NFILE_STREAMS > 0","int","int c","FAR FILE *"
"fputs","stdio.h","CONFIG_NFILE_STREAMS > 0","int","FAR const char *","FAR FILE *"
"fread","stdio.h","CONFIG_NFILE_STREAMS > 0","size_t","FAR void *","size_t","size_t","FAR FILE *"
"free","stdlib.h","","void","FAR void *"
"fseek","stdio.h","CONFIG_NFILE_STREAMS > 0","int","FAR FILE *","long int","int"
"fsetpos","stdio.h","CONFIG_NFILE_STREAMS > 0","int","FAR FILE *","FAR fpos_t *"
"ftell","stdio.h","CONFIG_NFILE_STREAMS > 0","long","FAR FILE *"
"fwrite","stdio.h","CONFIG_NFILE_STREAMS > 0","size_t","FAR const void *","size_t","size_t","FAR FILE *"
"get_errno_ptr","errno.h","defined(CONFIG_BUILD_FLAT)","FAR int *"
"getcwd","unistd.h","!defined(CONFIG_DISABLE_ENVIRON)","FAR char","FAR char *","size_t"
"gethostname","unistd.h","","int","FAR char*","size_t"
"getopt","unistd.h","","int","int","FAR char *const[]","FAR const char *"
"getoptargp","unistd.h","","FAR char *"
"getoptindp","unistd.h","","int"
"getoptoptp","unistd.h","","int"
"gets","stdio.h","CONFIG_NFILE_STREAMS > 0","FAR char","FAR char *"
"gmtime","time.h","","struct tm","FAR const time_t *"
"gmtime_r","time.h","","FAR struct tm","FAR const time_t *","FAR struct tm *"
"htonl","arpa/inet.h","","uint32_t","uint32_t"
"htons","arpa/inet.h","","uint16_t","uint16_t"
"imaxabs","inttypes.h","","intmax_t","intmax_t"
"inet_addr","arpa/inet.h","","in_addr_t","FAR const char "
"inet_ntoa","arpa/inet.h","defined(CONFIG_NET_IPv4) && defined(CONFIG_CAN_PASS_STRUCTS)","FAR char","struct in_addr"
"inet_ntop","arpa/inet.h","","FAR const char","int","FAR const void *","FAR char *","socklen_t"
"inet_pton","arpa/inet.h","","int","int","FAR const char *","FAR void *"
"ioctl","sys/ioctl.h","defined(CONFIG_LIBC_IOCTL_VARIADIC)","int","int","int","..."
"iswalnum","wctype.h","defined(CONFIG_LIBC_WCHAR)","int","wint_t"
"iswalpha","wctype.h","defined(CONFIG_LIBC_WCHAR)","int","wint_t"
"iswblank","wctype.h","defined(CONFIG_LIBC_WCHAR)","int","wint_t"
"iswcntrl","wctype.h","defined(CONFIG_LIBC_WCHAR)","int","wint_t"
"iswctype","wctype.h","defined(CONFIG_LIBC_WCHAR)","int","wint_t","wctype_t"
"iswdigit","wctype.h","defined(CONFIG_LIBC_WCHAR)","int","wint_t"
"iswgraph","wctype.h","defined(CONFIG_LIBC_WCHAR)","int","wint_t"
"iswlower","wctype.h","defined(CONFIG_LIBC_WCHAR)","int","wint_t"
"iswprint","wctype.h","defined(CONFIG_LIBC_WCHAR)","int","wint_t"
"iswpunct","wctype.h","defined(CONFIG_LIBC_WCHAR)","int","wint_t"
"iswspace","wctype.h","defined(CONFIG_LIBC_WCHAR)","int","wint_t"
"iswupper","wctype.h","defined(CONFIG_LIBC_WCHAR)","int","wint_t"
"iswxdigit","wctype.h","defined(CONFIG_LIBC_WCHAR)","int","wint_t"
"labs","stdlib.h","","long int","long int"
"lib_dumpbuffer","debug.h","","void","FAR const char *","FAR const uint8_t *","unsigned int"
"lio_listio","aio.h","defined(CONFIG_FS_AIO)","int","int","FAR struct aiocb *const []|FAR struct aiocb *const *","int","FAR struct sigevent *"
"llabs","stdlib.h","defined(CONFIG_HAVE_LONG_LONG)","long long int","long long int"
"malloc","stdlib.h","","FAR void *","size_t"
"match","nuttx/lib/regex.h","","int","FAR const char *","FAR const char *"
"mbrtowc","wchar.h","defined(CONFIG_LIBC_WCHAR)","size_t","wchar_t *","FAR const char *","size_t","mbstate_t *"
"mbsnrtowcs","wchar.h","defined(CONFIG_LIBC_WCHAR)","size_t","FAR wchar_t *","FAR const char **","size_t","size_t","mbstate_t *"
"mbtowc","wchar.h","defined(CONFIG_LIBC_WCHAR)","int","wchar_t *","FAR const wchar_t *","size_t"
"memccpy","string.h","","FAR void","FAR void *","FAR const void *","int c","size_t"
"memchr","string.h","","FAR void","FAR const void *","int c","size_t"
"memcmp","string.h","","int","FAR const void *","FAR const void *","size_t"
"memcpy","string.h","","FAR void","FAR void *","FAR const void *","size_t"
"memmove","string.h","","FAR void","FAR void *","FAR const void *","size_t"
"memset","string.h","","FAR void","FAR void *","int c","size_t"
"mkfifo","sys/stat.h","","int","FAR const char*","mode_t"
"mktime","time.h","","time_t","FAR const struct tm *"
"ntohl","arpa/inet.h","","uint32_t","uint32_t"
"ntohs","arpa/inet.h","","uint16_t","uint16_t"
"perror","stdio.h","CONFIG_NFILE_STREAMS > 0","void","FAR const char *"
"pipe","unistd.h","","int","int [2]|int*"
"printf","stdio.h","","int","FAR const char *","..."
"pthread_attr_destroy","pthread.h","!defined(CONFIG_DISABLE_PTHREAD)","int","FAR pthread_attr_t *"
"pthread_attr_getinheritsched","pthread.h","!defined(CONFIG_DISABLE_PTHREAD)","int","FAR const pthread_attr_t *","FAR int *"
"pthread_attr_getschedparam","pthread.h","!defined(CONFIG_DISABLE_PTHREAD)","int","FAR pthread_attr_t *","FAR struct sched_param *"
"pthread_attr_getschedpolicy","pthread.h","!defined(CONFIG_DISABLE_PTHREAD)","int","FAR pthread_attr_t *","int *"
"pthread_attr_getstacksize","pthread.h","!defined(CONFIG_DISABLE_PTHREAD)","int","FAR pthread_attr_t *","FAR size_t *"
"pthread_attr_init","pthread.h","!defined(CONFIG_DISABLE_PTHREAD)","int","FAR pthread_attr_t *"
"pthread_attr_setinheritsched","pthread.h","!defined(CONFIG_DISABLE_PTHREAD)","int","FAR pthread_attr_t *","int"
"pthread_attr_setschedparam","pthread.h","!defined(CONFIG_DISABLE_PTHREAD)","int","FAR pthread_attr_t *","FAR const struct sched_param *"
"pthread_attr_setschedpolicy","pthread.h","!defined(CONFIG_DISABLE_PTHREAD)","int","FAR pthread_attr_t *","int"
"pthread_attr_setstacksize","pthread.h","!defined(CONFIG_DISABLE_PTHREAD)","int","FAR pthread_attr_t *","size_t"
"pthread_barrierattr_destroy","pthread.h","!defined(CONFIG_DISABLE_PTHREAD)","int","FAR pthread_barrierattr_t *"
"pthread_barrierattr_getpshared","pthread.h","!defined(CONFIG_DISABLE_PTHREAD)","int","FAR const pthread_barrierattr_t *","FAR int *"
"pthread_barrierattr_init","pthread.h","!defined(CONFIG_DISABLE_PTHREAD)","int","FAR pthread_barrierattr_t *"
"pthread_barrierattr_setpshared","pthread.h","!defined(CONFIG_DISABLE_PTHREAD)","int","FAR pthread_barrierattr_t *","int"
"pthread_barrier_destroy","pthread.h","!defined(CONFIG_DISABLE_PTHREAD)","int","FAR pthread_barrier_t*"
"pthread_barrier_init","pthread.h","!defined(CONFIG_DISABLE_PTHREAD)","int","FAR pthread_barrier_t*","FAR const pthread_barrierattr_t*","unsigned int"
"pthread_barrier_wait","pthread.h","!defined(CONFIG_DISABLE_PTHREAD)","int","FAR pthread_barrier_t*"
"pthread_condattr_destroy","pthread.h","!defined(CONFIG_DISABLE_PTHREAD)","int","FAR pthread_condattr_t *"
"pthread_condattr_init","pthread.h","!defined(CONFIG_DISABLE_PTHREAD)","int","FAR pthread_condattr_t *"
"pthread_cond_destroy","pthread.h","!defined(CONFIG_DISABLE_PTHREAD)","int","FAR pthread_cond_t*"
"pthread_cond_init","pthread.h","!defined(CONFIG_DISABLE_PTHREAD)","int","FAR pthread_cond_t*","FAR const pthread_condattr_t*"
"pthread_mutex_lock","pthread.h","!defined(CONFIG_DISABLE_PTHREAD)","int","FAR pthread_mutex_t*"
"pthread_mutexattr_destroy","pthread.h","!defined(CONFIG_DISABLE_PTHREAD)","int","FAR pthread_mutexattr_t *"
"pthread_mutexattr_getpshared","pthread.h","!defined(CONFIG_DISABLE_PTHREAD)","int","FAR pthread_mutexattr_t *","FAR int *"
"pthread_mutexattr_gettype","pthread.h","!defined(CONFIG_DISABLE_PTHREAD) && defined(CONFIG_PTHREAD_MUTEX_TYPES)","int","FAR const pthread_mutexattr_t *","int *"
"pthread_mutexattr_init","pthread.h","!defined(CONFIG_DISABLE_PTHREAD)","int","FAR pthread_mutexattr_t *"
"pthread_mutexattr_setpshared","pthread.h","!defined(CONFIG_DISABLE_PTHREAD)","int","FAR pthread_mutexattr_t *","int "
"pthread_mutexattr_settype","pthread.h","!defined(CONFIG_DISABLE_PTHREAD) && defined(CONFIG_PTHREAD_MUTEX_TYPES)","int","pthread_mutexattr_t *","int"
"pthread_once","pthread.h","!defined(CONFIG_DISABLE_PTHREAD)","int","FAR pthread_once_t*","CODE void (*)(void)"
"pthread_yield","pthread.h","!defined(CONFIG_DISABLE_PTHREAD)","void"
"puts","stdio.h","CONFIG_NFILE_STREAMS > 0","int","FAR const char *"
"qsort","stdlib.h","","void","void *","size_t","size_t","int(*)(const void *","FAR const void *)"
"rand","stdlib.h","","int"
"readdir_r","dirent.h","","int","FAR DIR *","FAR struct dirent *","FAR struct dirent **"
"realloc","stdlib.h","","FAR void *","FAR void *","size_t"
"sched_get_priority_max","sched.h","","int","int"
"sched_get_priority_min","sched.h","","int","int"
"sem_getvalue","semaphore.h","","int","FAR sem_t *","FAR int *"
"sem_init","semaphore.h","","int","FAR sem_t *","int","unsigned int"
"sendfile","sys/sendfile.h","","ssize_t","int","int","off_t","size_t"
"setlocale","locale.h","defined(CONFIG_LIBC_LOCALE)","FAR char *s","int","FAR const char *s"
"setlogmask","syslog.h","","int","int"
"sigaddset","signal.h","","int","FAR sigset_t *","int"
"sigdelset","signal.h","","int","FAR sigset_t *","int"
"sigemptyset","signal.h","","int","FAR sigset_t *"
"sigfillset","signal.h","","int","FAR sigset_t *"
"sigismember","signal.h","","int","FAR const sigset_t *","int"
"sleep","unistd.h","","unsigned int","unsigned int"
"snprintf","stdio.h","","int","FAR char *","size_t","FAR const char *","..."
"sprintf","stdio.h","","int","FAR char *","FAR const char *","..."
"sq_addafter","queue.h","","void","FAR sq_entry_t *","FAR sq_entry_t *","FAR sq_queue_t *"
"sq_addfirst","queue.h","","void","FAR sq_entry_t *","sq_queue_t *"
"sq_addlast","queue.h","","void","FAR sq_entry_t *","sq_queue_t *"
"sq_rem","queue.h","","void","FAR sq_entry_t *","sq_queue_t *"
"sq_remafter","queue.h","","FAR sq_entry_t","FAR sq_entry_t *","sq_queue_t *"
"sq_remfirst","queue.h","","FAR sq_entry_t","sq_queue_t *"
"sq_remlast","queue.h","","FAR sq_entry_t","sq_queue_t *"
"srand","stdlib.h","","void","unsigned int"
"sscanf","stdio.h","","int","FAR const char *","FAR const char *","..."
"strcasecmp","strings.h","","int","FAR const char *","FAR const char *"
"strcasestr","string.h","","FAR char","FAR const char *","FAR const char *"
"strcat","string.h","","FAR char","FAR char *","FAR const char *"
"strchr","string.h","","FAR char","FAR const char *","int"
"strcmp","string.h","","int","FAR const char *","FAR const char *"
"strcoll","string.h","defined(CONFIG_LIBC_LOCALE)","int","FAR const char *","FAR const char *"
"strcpy","string.h","","FAR char *","FAR char *","FAR const char *"
"strcspn","string.h","","size_t","FAR const char *","FAR const char *"
"strdup","string.h","","FAR char","FAR const char *"
"strerror","string.h","","FAR const char","int"
"strerror_r","string.h","","int","int","FAR char *","size_t"
"strftime","time.h","","size_t","FAR char *","size_t","FAR const char *","FAR const struct tm *"
"strlen","string.h","","size_t","FAR const char *"
"strncasecmp","strings.h","","int","FAR const char *","FAR const char *","size_t"
"strncat","string.h","","FAR char","FAR char *","FAR const char *","size_t"
"strncmp","string.h","","int","FAR const char *","FAR const char *","size_t"
"strncpy","string.h","","FAR char","FAR char *","FAR const char *","size_t"
"strndup","string.h","","FAR char","FAR const char *","size_t"
"strnlen","string.h","","size_t","FAR const char *","size_t"
"strpbrk","string.h","","FAR char","FAR const char *","FAR const char *"
"strrchr","string.h","","FAR char","FAR const char *","int"
"strspn","string.h","","size_t","FAR const char *","FAR const char *"
"strstr","string.h","","FAR char","FAR const char *","FAR const char *"
"strtod","stdlib.h","","double_t","FAR const char *str","FAR char **endptr"
"strtok","string.h","","FAR char","FAR char *","FAR const char *"
"strtok_r","string.h","","FAR char","FAR char *","FAR const char *","FAR char **"
"strtol","string.h","","long","FAR const char *","FAR char **","int"
"strtoll","stdlib.h","defined(CONFIG_HAVE_LONG_LONG)","long long","FAR const char *nptr","FAR char **endptr","int base"
"strtoul","stdlib.h","","unsigned long","FAR const char *","FAR char **","int"
"strtoull","stdlib.h","defined(CONFIG_HAVE_LONG_LONG)","unsigned long long","FAR const char *","FAR char **","int"
"strxfrm","string.h","defined(CONFIG_LIBC_LOCALE)","size_t","FAR char *","FAR const char *","size_t"
"swab","unistd.h","","void","int","FAR const void *","FAR void *","ssize_t"
"swprintf","wchar.h","defined(CONFIG_LIBC_WCHAR)","int","FAR wchar_t *","size_t","FAR const wchar_t *","..."
"syslog","syslog.h","","int","int","FAR const char *","..."
"tcflush","termios.h","defined(CONFIG_SERIAL_TERMIOS)","int","int","int"
"tcgetattr","termios.h","defined(CONFIG_SERIAL_TERMIOS)","int","int","FAR struct termios *"
"tcsetattr","termios.h","defined(CONFIG_SERIAL_TERMIOS)","int","int","int","FAR const struct termios *"
"telldir","dirent.h","","off_t","FAR DIR *"
"time","time.h","","time_t","time_t *"
"towlower","wchar.h","defined(CONFIG_LIBC_WCHAR)","wint_t","wint_t"
"towupper","wchar.h","defined(CONFIG_LIBC_WCHAR)","wint_t","wint_t"
"ub16divub16","fixedmath.h","!defined(CONFIG_HAVE_LONG_LONG)","ub16_t","ub16_t","ub16_t"
"ub16mulub16","fixedmath.h","!defined(CONFIG_HAVE_LONG_LONG)","ub16_t","ub16_t","ub16_t"
"ub16sqr","fixedmath.h","!defined(CONFIG_HAVE_LONG_LONG)","ub16_t","ub16_t"
"ungetc","stdio.h","CONFIG_NFILE_STREAMS > 0","int","int","FAR FILE *"
"usleep","unistd.h","","int","int","FAR FILE *"
"_info","debug.h","!defined(CONFIG_CPP_HAVE_VARARGS) && defined(CONFIG_DEBUG_INFO)","int","FAR const char *","..."
"vfprintf","stdio.h","CONFIG_NFILE_STREAMS > 0","int","FAR FILE *","FAR const char *","va_list"
"vprintf","stdio.h","CONFIG_NFILE_STREAMS > 0","int","FAR const char *","va_list"
"vsnprintf","stdio.h","","int","FAR char *","size_t","FAR const char *","va_list"
"vsprintf","stdio.h","","int","FAR char *","FAR const char *","va_list"
"vsscanf","stdio.h","","int","FAR char *","FAR const char *","va_list"
"vsyslog","syslog.h","","int","int","FAR const char *","va_list"
"wcrtomb","wchar.h","defined(CONFIG_LIBC_WCHAR)","size_t","FAR char *","wchar_t","mbstate_t *"
"wcscmp","wchar.h","defined(CONFIG_LIBC_WCHAR)","int","FAR const wchar_t *","FAR const wchar_t *"
"wcscoll","wchar.h","defined(CONFIG_LIBC_WCHAR)","int","FAR const wchar_t *","FAR const wchar_t *"
"wcsftime","wchar.h","defined(CONFIG_LIBC_WCHAR)","size_t","FAR wchar_t *","size_t","FAR const wchar_t *","FAR const struct tm *"
"wcslcpy","wchar.h","defined(CONFIG_LIBC_WCHAR)","size_t","FAR const wchar_t *","FAR const wchar_t *","size_t"
"wcslen","wchar.h","defined(CONFIG_LIBC_WCHAR)","size_t","FAR const wchar_t *"
"wcsnrtombs","wchar.h","defined(CONFIG_LIBC_WCHAR)","size_t","FAR char *","FAR const wchar_t **","size_t","size_t","mbstate_t *"
"wcstod","wchar.h","defined(CONFIG_LIBC_WCHAR)","","FAR const wchar_t *","FAR wchar_t **"
"wcstof","wchar.h","defined(CONFIG_LIBC_WCHAR)","float","FAR const wchar_t *","FAR wchar_t **"
"wcstol","wchar.h","defined(CONFIG_LIBC_WCHAR)","long int","FAR const wchar_t *","FAR wchar_t **","int"
"wcstold","wchar.h","defined(CONFIG_LIBC_WCHAR)","long double","FAR const wchar_t *","FAR wchar_t **"
"wcstoll","wchar.h","defined(CONFIG_LIBC_WCHAR)","long long int","FAR const wchar_t *","FAR wchar_t **","int"
"wcstoul","wchar.h","defined(CONFIG_LIBC_WCHAR)","unsigned long int","FAR const wchar_t *","FAR wchar_t **","int"
"wcsxfrm","wchar.h","defined(CONFIG_LIBC_WCHAR)","size_t","wchar_t *","FAR const wchar_t *","size_t"
"wctob","wchar.h","defined(CONFIG_LIBC_WCHAR)","int","wchar_t"
"wctomb","wchar.h","defined(CONFIG_LIBC_WCHAR)","int","FAR char *","wchar_t"
"wctype","wctype.h","defined(CONFIG_LIBC_WCHAR)","wctype_t","FAR const char *"
"wmemchr","wchar.h","defined(CONFIG_LIBC_WCHAR)","wchar_t *","wchar_t *","wchar_t","size_t"
"wmemcmp","wchar.h","defined(CONFIG_LIBC_WCHAR)","int","wchar_t *","wchar_t *","size_t"
"wmemcpy","wchar.h","defined(CONFIG_LIBC_WCHAR)","wchat_t *","wchar_t *","wchar_t *","size_t"
"wmemmove","wchar.h","defined(CONFIG_LIBC_WCHAR)","wchat_t *","wchar_t *","wchar_t *","size_t"
"wmemset","wchar.h","defined(CONFIG_LIBC_WCHAR)","wchat_t *","wchar_t *","wchar_t","size_t"
"_warn","debug.h","!defined(CONFIG_CPP_HAVE_VARARGS) && defined(CONFIG_DEBUG_WARN)","int","FAR const char *","..."
